<?php

use Fuel\Core\DB;
use Fuel\Core\Config;

/**
 * Any query in Model User Guest Id
 *
 * @package Model
 * @created 2015-02-02
 * @version 1.0
 * @author Le Tuan Tu
 * @copyright Oceanize INC
 */
class Model_User_Guest_Id extends Model_Abstract
{
    protected static $_properties = array(
        'id',
        'type',
        'device',
        'device_id',
        'created',
        'updated',
    );

    protected static $_observers = array(
        'Orm\Observer_CreatedAt' => array(
            'events'          => array('before_insert'),
            'mysql_timestamp' => false,
        ),
        'Orm\Observer_UpdatedAt' => array(
            'events'          => array('before_update'),
            'mysql_timestamp' => false,
        ),
    );

    protected static $_table_name = 'user_guest_ids';

    /**
     * Add guest login
     *
     * @author Le Tuan Tu
     * @param array $param Input data
     * @return bool Returns result of action
     */
    public static function guest_login($param)
    {
        $type = 'guest';
        $device = \Lib\Util::deviceId($param['os']); 
        if ($device == 3 && !empty($param['device'])) { // for testing
            $device = $param['device'];
        }
        if ($device != 1 && $device != 2) {
            self::errorParamInvalid('device');
            return false;
        }        
        $options['where'] = array(
            'type' => $type,
            'device' => $device,
            'device_id' => $param['device_id']
        );
        $login = self::find('first', $options);
        if ($login) {   
            return $login->get('id');
        }       
        $login = new self;
        $login->set('type', $type);
        $login->set('device', $device);
        $login->set('device_id', $param['device_id']);
        if ($login->create()) {
            $login->id = self::cached_object($login)->_original['id'];
            return !empty($login->id) ? $login->id : 0;
        }
        return false;
    }
    
   /**
     * Add info into user guest id
     *
     * @author truongnn
     * @param array $param Input data
     * @return int|bool Returns guest id or false if error
     */
    public static function add_update($param)
    {
        $id = !empty($param['id']) ? $param['id'] : 0;
        $guestUser = self::find($id);
        if (empty($guestUser)) {
            $guestUser = new self;
            $guestUser->set('id', $param['id']);
            $guestUser->set('type', $param['type']);
            $guestUser->set('device', $param['device']);
            $guestUser->set('device_id', $param['device_id']);
            if ($guestUser->create()) {
                return true;
            }
        } else {
            $guestUser->set('type', $param['type']);
            $guestUser->set('device', $param['device']);
            $guestUser->set('device_id', $param['device_id']);
            if ($guestUser->update()) {
                return true;
            }
        }
        return false;
    }
}

