<?php

namespace Bus;

/**
 * Get detail help content
 *
 * @package Bus
 * @created 2014-12-04
 * @version 1.0
 * @author Le Tuan Tu
 * @copyright Oceanize INC
 */
class HelpContents_Detail extends BusAbstract
{
    /** @var array $_required field require */
    protected $_required = array(
        'id'
    );

    /** @var array $_length Length of fields */
    protected $_length = array(
        'id' => array(1, 11),
    );

    /** @var array $_number_format field number */
    protected $_number_format = array(
        'id'
    );

    /**
     * Get detail help content by id
     *
     * @author Le Tuan Tu
     * @param array $data Input data
     * @return bool Returns result of operate DB
     */
    public function operateDB($data)
    {
        try {
            $this->_response = \Model_Help_Content::find($data['id']);
            return $this->result(\Model_Help_Content::error());
        } catch (\Exception $e) {
            $this->_exception = $e;
        }
        return false;
    }

}

